<svg xmlns="http://www.w3.org/2000/svg" width="13.646" height="13.22">
    <defs>
        <style>
            .cls-2{fill:none;stroke:#b4b4b4;stroke-linecap:round;stroke-miterlimit:10;stroke-width:2px;stroke-linejoin:round}
        </style>
    </defs>
    <g transform="translate(.874 .22)">
        <path style="fill:none" d="M0 0h12v13H0z"/>
        <g transform="translate(.126 .78)">
            <path class="cls-2" d="M437.4 166.725v3.313h-11.643v-3.313" transform="translate(-425.757 -159.831)"/>
            <path transform="translate(5.823)" style="stroke:#b4b4b4;stroke-linecap:round;stroke-miterlimit:10;stroke-width:2px;fill:none" d="M0 7.264V0"/>
            <path class="cls-2" d="m440 164.208-2.79 2.79-2.789-2.79" transform="translate(-431.386 -159.653)"/>
        </g>
    </g>
</svg>
