{"properties": [
  {
    "name": "security.jwt.token-expiration-time",
    "type": "java.lang.String",
    "description": "A description for 'security.jwt.token-expiration-time'"
  },
  {
    "name": "security.jwt.refreshTokenExpTime",
    "type": "java.lang.String",
    "description": "A description for 'security.jwt.refreshTokenExpTime'"
  },
  {
    "name": "security.jwt.tokenSigningKey",
    "type": "java.lang.String",
    "description": "A description for 'security.jwt.tokenSigningKey'"
  },
  {
    "name": "security.jwt.tokenIssuer",
    "type": "java.lang.String",
    "description": "A description for 'security.jwt.tokenIssuer'"
  },
  {
    "name": "property.ftp.host",
    "type": "java.lang.String",
    "description": "A description for 'property.ftp.host'"
  },
  {
    "name": "property.ftp.username",
    "type": "java.lang.String",
    "description": "A description for 'property.ftp.username'"
  },
  {
    "name": "property.ftp.password",
    "type": "java.lang.String",
    "description": "A description for 'property.ftp.password'"
  },
  {
    "name": "property.image.server.host",
    "type": "java.lang.String",
    "description": "A description for 'property.image.server.host'"
  },
  {
    "name": "property.mail.host",
    "type": "java.lang.String",
    "description": "A description for 'property.mail.host'"
  },
  {
    "name": "property.mail.port",
    "type": "java.lang.String",
    "description": "A description for 'property.mail.port'"
  },
  {
    "name": "property.mail.user",
    "type": "java.lang.String",
    "description": "A description for 'property.mail.user'"
  },
  {
    "name": "property.mail.password",
    "type": "java.lang.String",
    "description": "A description for 'property.mail.password'"
  },
  {
    "name": "property.mail.mail",
    "type": "java.lang.String",
    "description": "A description for 'property.mail.mail'"
  }
]}